{
    "name": "ControlesJ2",
    "maps": [
        {
            "name": "Juego2",
            "id": "1a74989b-340b-4dfc-ad7f-53bd688046a1",
            "actions": [
                {
                    "name": "MoverDerecha",
                    "type": "Button",
                    "id": "7cd5f8b2-ebd0-4d3c-8149-c4aed69f5c01",
                    "expectedControlType": "Button",
                    "processors": "",
                    "interactions": "",
                    "initialStateCheck": false
                },
                {
                    "name": "Moveraizquierda",
                    "type": "Button",
                    "id": "b4a6f205-6757-4873-8a37-8099d817881f",
                    "expectedControlType": "Button",
                    "processors": "",
                    "interactions": "",
                    "initialStateCheck": false
                },
                {
                    "name": "saltar",
                    "type": "Button",
                    "id": "0a8c80a4-35f9-4653-b904-0bb14025d403",
                    "expectedControlType": "Button",
                    "processors": "",
                    "interactions": "",
                    "initialStateCheck": false
                },
                {
                    "name": "patear",
                    "type": "Button",
                    "id": "0fd38767-06eb-4536-b0aa-db2229ca4447",
                    "expectedControlType": "Button",
                    "processors": "",
                    "interactions": "",
                    "initialStateCheck": false
                }
            ],
            "bindings": [
                {
                    "name": "",
                    "id": "8d55a129-f713-4844-afd6-37d8a36504a0",
                    "path": "<Keyboard>/rightArrow",
                    "interactions": "",
                    "processors": "",
                    "groups": "",
                    "action": "MoverDerecha",
                    "isComposite": false,
                    "isPartOfComposite": false
                },
                {
                    "name": "",
                    "id": "94fe7491-5f79-4f81-a313-f6e59e13b05f",
                    "path": "<Keyboard>/leftArrow",
                    "interactions": "",
                    "processors": "",
                    "groups": "",
                    "action": "Moveraizquierda",
                    "isComposite": false,
                    "isPartOfComposite": false
                },
                {
                    "name": "",
                    "id": "e15d0fca-2be1-42e2-981e-084a95dd8e01",
                    "path": "<Keyboard>/upArrow",
                    "interactions": "",
                    "processors": "",
                    "groups": "",
                    "action": "saltar",
                    "isComposite": false,
                    "isPartOfComposite": false
                },
                {
                    "name": "",
                    "id": "dd4ab00c-1bcf-4298-814e-3955e9ef48ed",
                    "path": "<Keyboard>/m",
                    "interactions": "",
                    "processors": "",
                    "groups": "",
                    "action": "patear",
                    "isComposite": false,
                    "isPartOfComposite": false
                }
            ]
        }
    ],
    "controlSchemes": []
}